Removed Pin From Net: NetName=NetR?_1 Pin=R?-2
Removed Pin From Net: NetName=NetR?_2 Pin=T?-1
Removed Pin From Net: NetName=GND Pin=T?-2
Added Pin To Net: NetName=NetR?_1 Pin=R?-2
Added Pin To Net: NetName=NetR?_2 Pin=T?-1
Added Pin To Net: NetName=GND Pin=T?-2
Added Member To Class: ClassName=CAN Member=Component C? 100n/16V
Added Member To Class: ClassName=CAN Member=Component C?
Added Member To Class: ClassName=CAN Member=Component C?
Added Member To Class: ClassName=CAN Member=Component C? Value
Added Member To Class: ClassName=Chnl Member=Component C? Capacitor
Added Member To Class: ClassName=I2C Member=Component C? 100n/16V
Added Member To Class: ClassName=I2C Member=Component C? 100n/16V
Added Member To Class: ClassName=I2C Member=Component C? 100n/16V
Added Member To Class: ClassName=MCU Member=Component C? 100n/16V
Added Member To Class: ClassName=MCU Member=Component C? 100n/16V
Added Member To Class: ClassName=MCU Member=Component C? 100n/16V
Added Member To Class: ClassName=MCU Member=Component C? 1u/16V
Added Member To Class: ClassName=MCU Member=Component C? 22pf
Added Member To Class: ClassName=MCU Member=Component C? 100n/16V
Added Member To Class: ClassName=MCU Member=Component C? 1u/16V
Added Member To Class: ClassName=MCU Member=Component C? 1u/16V
Added Member To Class: ClassName=MCU Member=Component C? 100n/16V
Added Member To Class: ClassName=MCU Member=Component C? 1u/16V
Added Member To Class: ClassName=MCU Member=Component C? 1u/16V
Added Member To Class: ClassName=Chnl Member=Component D? MMSZ3V3T1G
Added Member To Class: ClassName=I2C Member=Component D? D5V0L2B3SO-7
Added Member To Class: ClassName=I2C Member=Component D? D5V0L2B3SO-7
Added Member To Class: ClassName=I2C Member=Component D? 824501500
Added Member To Class: ClassName=I2C Member=Component D? D5V0L2B3SO-7
Added Member To Class: ClassName=I2C Member=Component FB? BLM18AG601SN1D
Added Member To Class: ClassName=Aux Member=Component J? ARM SWD
Added Member To Class: ClassName=Aux Member=Component J? ST Link SWD
Added Member To Class: ClassName=CAN Member=Component J? DB9-F
Added Member To Class: ClassName=I2C Member=Component J? I2C RJ45
Added Member To Class: ClassName=Aux Member=Component LED? Red
Added Member To Class: ClassName=Aux Member=Component LED? Green
Added Member To Class: ClassName=Aux Member=Component R? 127
Added Member To Class: ClassName=Aux Member=Component R? 270
Added Member To Class: ClassName=Aux Member=Component R? 10k
Added Member To Class: ClassName=Aux Member=Component R? 10k
Added Member To Class: ClassName=Aux Member=Component R? 10k
Added Member To Class: ClassName=Aux Member=Component R? 10k
Added Member To Class: ClassName=Aux Member=Component R? 270
Added Member To Class: ClassName=CAN Member=Component R? 60
Added Member To Class: ClassName=CAN Member=Component R? 60
Added Member To Class: ClassName=Chnl Member=Component R? 22k
Added Member To Class: ClassName=Chnl Member=Component R? Resistor
Added Member To Class: ClassName=Chnl Member=Component R? 100R
Added Member To Class: ClassName=Chnl Member=Component R? 100k
Added Member To Class: ClassName=Chnl Member=Component R? Resistor
Added Member To Class: ClassName=Chnl Member=Component R? 47k
Added Member To Class: ClassName=I2C Member=Component R? 1k
Added Member To Class: ClassName=I2C Member=Component R? 1k
Added Member To Class: ClassName=I2C Member=Component R? 10k
Added Member To Class: ClassName=I2C Member=Component R? 4k7
Added Member To Class: ClassName=I2C Member=Component R? 4k7
Added Member To Class: ClassName=I2C Member=Component R? 1k
Added Member To Class: ClassName=I2C Member=Component R? 1k
Added Member To Class: ClassName=I2C Member=Component R? 4k7
Added Member To Class: ClassName=I2C Member=Component R? 4k7
Added Member To Class: ClassName=Aux Member=Component S? Rotary Switch
Added Member To Class: ClassName=Chnl Member=Component T? NTF5P03T3G
Added Member To Class: ClassName=I2C Member=Component U? TCA9517DR
