Removed Pin From Net: NetName=GPIO_A3 Pin=R41-1
Removed Pin From Net: NetName=GPIO_A2 Pin=R42-1
Removed Pin From Net: NetName=GPIO_A2 Pin=S2-2
Removed Pin From Net: NetName=GPIO_A3 Pin=S2-4
Added Pin To Net: NetName=GPIO_A2 Pin=R41-1
Added Pin To Net: NetName=GPIO_A3 Pin=R42-1
Added Pin To Net: NetName=GPIO_A3 Pin=S2-2
Added Pin To Net: NetName=GPIO_A2 Pin=S2-4
